<svg xmlns="http://www.w3.org/2000/svg" width="40" height="26" viewBox="0 0 40 26">
    <path fill="#00BCF1" fill-rule="evenodd" d="M2.93 22.229L19.864 2.832a.624.624 0 0 1 .967 0l17.039 19.52c.432.494.125 1.34-.486 1.337l-33.97-.123c-.609-.002-.912-.845-.482-1.337"/>
</svg>
